%YAML 1.1
%TAG !u! tag:unity3d.com,2011:
--- !u!1 &5345548685699402510
GameObject:
  m_ObjectHideFlags: 0
  m_CorrespondingSourceObject: {fileID: 0}
  m_PrefabInstance: {fileID: 0}
  m_PrefabAsset: {fileID: 0}
  serializedVersion: 6
  m_Component:
  - component: {fileID: 5345548685699402508}
  - component: {fileID: 5345548685699402509}
  - component: {fileID: 5345548685699402507}
  m_Layer: 0
  m_Name: Invincibility
  m_TagString: Untagged
  m_Icon: {fileID: 0}
  m_NavMeshLayer: 0
  m_StaticEditorFlags: 0
  m_IsActive: 1
--- !u!4 &5345548685699402508
Transform:
  m_ObjectHideFlags: 0
  m_CorrespondingSourceObject: {fileID: 0}
  m_PrefabInstance: {fileID: 0}
  m_PrefabAsset: {fileID: 0}
  m_GameObject: {fileID: 5345548685699402510}
  m_LocalRotation: {x: 0, y: 0, z: 0, w: 1}
  m_LocalPosition: {x: 0, y: 1.025, z: 0}
  m_LocalScale: {x: 4, y: 4, z: 4}
  m_Children:
  - {fileID: 4978845922271750490}
  m_Father: {fileID: 0}
  m_RootOrder: 0
  m_LocalEulerAnglesHint: {x: 0, y: 0, z: 0}
--- !u!114 &5345548685699402509
MonoBehaviour:
  m_ObjectHideFlags: 0
  m_CorrespondingSourceObject: {fileID: 0}
  m_PrefabInstance: {fileID: 0}
  m_PrefabAsset: {fileID: 0}
  m_GameObject: {fileID: 5345548685699402510}
  m_Enabled: 1
  m_EditorHideFlags: 0
  m_Script: {fileID: 11500000, guid: 56601dd3704e8a9479fbd75e61f3cce5, type: 3}
  m_Name: 
  m_EditorClassIdentifier: 
  _data: {fileID: 11400000, guid: d8f8fdf18f113874aa44ecb34d1ce738, type: 2}
  index: 0
  _rotationSpeed: 50
--- !u!135 &5345548685699402507
SphereCollider:
  m_ObjectHideFlags: 0
  m_CorrespondingSourceObject: {fileID: 0}
  m_PrefabInstance: {fileID: 0}
  m_PrefabAsset: {fileID: 0}
  m_GameObject: {fileID: 5345548685699402510}
  m_Material: {fileID: 0}
  m_IsTrigger: 1
  m_Enabled: 1
  serializedVersion: 2
  m_Radius: 0.22798273
  m_Center: {x: 0, y: 0, z: -0.0038835704}
--- !u!1001 &3430159248731170877
PrefabInstance:
  m_ObjectHideFlags: 0
  serializedVersion: 2
  m_Modification:
    m_TransformParent: {fileID: 5345548685699402508}
    m_Modifications:
    - target: {fileID: 7479871070764392414, guid: b37f5260c53592543b9663132c510003,
        type: 3}
      propertyPath: m_Name
      value: Bottle_Regular_08
      objectReference: {fileID: 0}
    - target: {fileID: 7674756453890818407, guid: b37f5260c53592543b9663132c510003,
        type: 3}
      propertyPath: m_RootOrder
      value: 0
      objectReference: {fileID: 0}
    - target: {fileID: 7674756453890818407, guid: b37f5260c53592543b9663132c510003,
        type: 3}
      propertyPath: m_LocalScale.x
      value: 0.52433676
      objectReference: {fileID: 0}
    - target: {fileID: 7674756453890818407, guid: b37f5260c53592543b9663132c510003,
        type: 3}
      propertyPath: m_LocalScale.y
      value: 0.52433676
      objectReference: {fileID: 0}
    - target: {fileID: 7674756453890818407, guid: b37f5260c53592543b9663132c510003,
        type: 3}
      propertyPath: m_LocalScale.z
      value: 0.52433676
      objectReference: {fileID: 0}
    - target: {fileID: 7674756453890818407, guid: b37f5260c53592543b9663132c510003,
        type: 3}
      propertyPath: m_LocalPosition.x
      value: -0.077
      objectReference: {fileID: 0}
    - target: {fileID: 7674756453890818407, guid: b37f5260c53592543b9663132c510003,
        type: 3}
      propertyPath: m_LocalPosition.y
      value: -0.17123
      objectReference: {fileID: 0}
    - target: {fileID: 7674756453890818407, guid: b37f5260c53592543b9663132c510003,
        type: 3}
      propertyPath: m_LocalPosition.z
      value: 0.0010642
      objectReference: {fileID: 0}
    - target: {fileID: 7674756453890818407, guid: b37f5260c53592543b9663132c510003,
        type: 3}
      propertyPath: m_LocalRotation.w
      value: 0.97783864
      objectReference: {fileID: 0}
    - target: {fileID: 7674756453890818407, guid: b37f5260c53592543b9663132c510003,
        type: 3}
      propertyPath: m_LocalRotation.x
      value: -0
      objectReference: {fileID: 0}
    - target: {fileID: 7674756453890818407, guid: b37f5260c53592543b9663132c510003,
        type: 3}
      propertyPath: m_LocalRotation.y
      value: -0
      objectReference: {fileID: 0}
    - target: {fileID: 7674756453890818407, guid: b37f5260c53592543b9663132c510003,
        type: 3}
      propertyPath: m_LocalRotation.z
      value: -0.20936014
      objectReference: {fileID: 0}
    - target: {fileID: 7674756453890818407, guid: b37f5260c53592543b9663132c510003,
        type: 3}
      propertyPath: m_LocalEulerAnglesHint.x
      value: 0
      objectReference: {fileID: 0}
    - target: {fileID: 7674756453890818407, guid: b37f5260c53592543b9663132c510003,
        type: 3}
      propertyPath: m_LocalEulerAnglesHint.y
      value: 0
      objectReference: {fileID: 0}
    - target: {fileID: 7674756453890818407, guid: b37f5260c53592543b9663132c510003,
        type: 3}
      propertyPath: m_LocalEulerAnglesHint.z
      value: -24.170002
      objectReference: {fileID: 0}
    m_RemovedComponents: []
  m_SourcePrefab: {fileID: 100100000, guid: b37f5260c53592543b9663132c510003, type: 3}
--- !u!4 &4978845922271750490 stripped
Transform:
  m_CorrespondingSourceObject: {fileID: 7674756453890818407, guid: b37f5260c53592543b9663132c510003,
    type: 3}
  m_PrefabInstance: {fileID: 3430159248731170877}
  m_PrefabAsset: {fileID: 0}
